{
  "project_info": {
    "project_number": "766174695717",
    "firebase_url": "https://loctroi-tichdiem.firebaseio.com",
    "project_id": "loctroi-tichdiem",
    "storage_bucket": "loctroi-tichdiem.appspot.com"
  },
  "client": [
    {
      "client_info": {
        "mobilesdk_app_id": "1:766174695717:android:84a3f65fa3aaf52f064acc",
        "android_client_info": {
          "package_name": "app.dailyloctroi.daily_loctroi_app"
        }
      },
      "oauth_client": [
        {
          "client_id": "766174695717-abqo6us7c55ubvnoksqmb8ui1sqd5gl7.apps.googleusercontent.com",
          "client_type": 1,
          "android_info": {
            "package_name": "app.dailyloctroi.daily_loctroi_app",
            "certificate_hash": "e2b30084b84e94c4c39e104e5924159df8dcebad"
          }
        },
        {
          "client_id": "766174695717-trsvnkhpj49uiubrluha0ugnfijvn08v.apps.googleusercontent.com",
          "client_type": 3
        }
      ],
      "api_key": [
        {
          "current_key": "AIzaSyBmE_7NYiI6kAdZ5Eu35THRPimZM_AOcq4"
        }
      ],
      "services": {
        "appinvite_service": {
          "other_platform_oauth_client": [
            {
              "client_id": "766174695717-trsvnkhpj49uiubrluha0ugnfijvn08v.apps.googleusercontent.com",
              "client_type": 3
            },
            {
              "client_id": "766174695717-3samrggn3dgrd126l3e007mgqchn9fp8.apps.googleusercontent.com",
              "client_type": 2,
              "ios_info": {
                "bundle_id": "mcom.asia.nonggia"
              }
            }
          ]
        }
      }
    },
    {
      "client_info": {
        "mobilesdk_app_id": "1:766174695717:android:e1293501fc0a2973064acc",
        "android_client_info": {
          "package_name": "mcom.asia.nonggia"
        }
      },
      "oauth_client": [
        {
          "client_id": "766174695717-se0osrarlvi4j5194r3k9n5s6hk348ln.apps.googleusercontent.com",
          "client_type": 1,
          "android_info": {
            "package_name": "mcom.asia.nonggia",
            "certificate_hash": "44cb1eb152b8f8b0638907557d69ec1a221ff3b6"
          }
        },
        {
          "client_id": "766174695717-lbk6vr6361qgam0c7numl9v9eh78o19e.apps.googleusercontent.com",
          "client_type": 1,
          "android_info": {
            "package_name": "mcom.asia.nonggia",
            "certificate_hash": "549db13700485d19b5d9576b0c876e567dd2e1c0"
          }
        },
        {
          "client_id": "766174695717-g6akh38vb30psoosnb555eia91gmnh4n.apps.googleusercontent.com",
          "client_type": 1,
          "android_info": {
            "package_name": "mcom.asia.nonggia",
            "certificate_hash": "faf1070e3f0e424b0fb87a887beb2a989a9e48f4"
          }
        },
        {
          "client_id": "766174695717-tb3chu3o8hhb4egbogsljopj7a0mv7a7.apps.googleusercontent.com",
          "client_type": 1,
          "android_info": {
            "package_name": "mcom.asia.nonggia",
            "certificate_hash": "c8cda18d1ca1926c1226460f7d2941cfe7e7bc45"
          }
        },
        {
          "client_id": "766174695717-tsb0a6hc4bhm1vsh83e65vjn2etv86qs.apps.googleusercontent.com",
          "client_type": 1,
          "android_info": {
            "package_name": "mcom.asia.nonggia",
            "certificate_hash": "bb2a5c2d33041ee74eeb49eabc2e16b97b572357"
          }
        },
        {
          "client_id": "766174695717-trsvnkhpj49uiubrluha0ugnfijvn08v.apps.googleusercontent.com",
          "client_type": 3
        }
      ],
      "api_key": [
        {
          "current_key": "AIzaSyBmE_7NYiI6kAdZ5Eu35THRPimZM_AOcq4"
        }
      ],
      "services": {
        "appinvite_service": {
          "other_platform_oauth_client": [
            {
              "client_id": "766174695717-trsvnkhpj49uiubrluha0ugnfijvn08v.apps.googleusercontent.com",
              "client_type": 3
            },
            {
              "client_id": "766174695717-3samrggn3dgrd126l3e007mgqchn9fp8.apps.googleusercontent.com",
              "client_type": 2,
              "ios_info": {
                "bundle_id": "mcom.asia.nonggia"
              }
            }
          ]
        }
      }
    }
  ],
  "configuration_version": "1"
}
